%YAML 1.1
%TAG !u! tag:unity3d.com,2011:
--- !u!114 &11400000
MonoBehaviour:
  m_ObjectHideFlags: 0
  m_PrefabParentObject: {fileID: 0}
  m_PrefabInternal: {fileID: 0}
  m_GameObject: {fileID: 0}
  m_Enabled: 1
  m_EditorHideFlags: 0
  m_Script: {fileID: 11500000, guid: 13ade7ea2a146442b9575619cf724737, type: 3}
  m_Name: RIVPEcoleBleuCollection
  m_EditorClassIdentifier: 
  Active: 1
  features:
  - Name: RIVPEcoleBleu
    active: 1
    prefab: {fileID: 1249461454924806, guid: 6a753854a8799b34e925d00ef2f531e2, type: 2}
    scaleDownWithWorld: 1
    _prefabLocations:
    - 48.846694300524, 2.4140954017639
    _explicitlyBlockedFeatureIds:
    - 773881411
    - 773881381
